package rules.EventMessage.EventFired_dir.TDIC_ALL100000_dir.TDIC_EFR120000HPExstream_dir.TDIC_EFR127000PaymentReversal_dir

uses tdic.bc.integ.plugins.hpexstream.util.TDIC_BCExstreamHelper
uses org.slf4j.LoggerFactory

@gw.rules.RuleName("TDIC_EFR127300 - APWReturned")
internal class TDIC_EFR127300APWReturned {
  static function doCondition(messageContext  :  entity.MessageContext) : boolean {
/*start00rule*/
    var pymtMoneyRcvd = (messageContext.Root typeis PaymentMoneyReceived) ? (messageContext.Root as PaymentMoneyReceived) : null
    return ((pymtMoneyRcvd typeis DirectBillMoneyRcvd) ? (pymtMoneyRcvd as DirectBillMoneyRcvd).DirectBillPayment.ReversedDistItems[0].PolicyPeriod!= null: false)
    and (pymtMoneyRcvd.PaymentInstrument.PaymentMethod == PaymentMethod.TC_ACH)
/*end00rule*/
}

  static function doAction(messageContext  :  entity.MessageContext, actions : gw.rules.Action) {
/*start00rule*/
LoggerFactory.getLogger("EXSTREAM_DOCUMENT_PRODUCTION").debug("APW Return Payment Reversal Event on Account: " + (messageContext.Root as DirectBillMoneyRcvd).Account.AccountNumber)
(new TDIC_BCExstreamHelper()).createBatchMessageForPaymentMoneyReceived(messageContext,"PaymentReversalAPWReturn")
/*end00rule*/
  }
}
