package rules.Preupdate.PolicyPeriodPreupdate_dir.TDIC_WC100000_dir
uses java.util.ArrayList

@gw.rules.RuleName("ClosureStatus Change to OpenLocked")
internal class ClosureStatusChangetoOpenLocked {
  static function doCondition(policyPeriod : entity.PolicyPeriod) : boolean {
/*start00rule*/
return policyPeriod.isFieldChanged(PolicyPeriod#ClosureStatus) and
       policyPeriod.ClosureStatus == PolicyClosureStatus.TC_OPENLOCKED
/*end00rule*/
}

  static function doAction(policyPeriod : entity.PolicyPeriod, actions : gw.rules.Action) {
/*start00rule*/
var chargeMap = policyPeriod.Charges.partition(\c -> c.BillingInstruction);
var audits = chargeMap.Keys.whereTypeIs(Audit).orderByDescending(\a -> a.CreateTime);

// Find the reversed audits that occurred after non-reversed audits.
var reversedAudits = new ArrayList<Audit>();
for (audit in audits) {
  if (audit.RevisionType_TDIC == AuditRevisionType_TDIC.TC_REVERSAL) {
    reversedAudits.add (audit);
  } else {
    break;
  }
}

for (audit in reversedAudits) {
  for (charge in audit.Charges) {
    charge.HoldStatus = ChargeHoldStatus.TC_FINALAUDIT;
  }
}

/*end00rule*/
  }
}
