package rules.Archive.DefaultGroupPolicyPeriodArchivingRules_dir

uses gw.api.database.Query


@gw.rules.RuleDisabled
@gw.rules.RuleName("Saved Distributions")
internal class SavedDistributions {
  static function doCondition(policyPeriod : entity.PolicyPeriod) : boolean {
/*start00rule*/
return true
/*end00rule*/
}

  static function doAction(policyPeriod : entity.PolicyPeriod, actions : gw.rules.Action) {
/*start00rule*/
// This rule is here to provide an example of how one might write rules using the freeze set.
// In this example rule, we inspect the freeze set for any distributions that might be saved (not executed).
// Saved distributions in the freeze set will become frozen after archiving. Customers may want to insist that this
// data is discarded before archiving proceeds.

var freezeSet = policyPeriod.FreezeSet
var savedDistsInFreezeSet = Query.make(entity.BaseDist)
savedDistsInFreezeSet.compareIn(BaseDist.ID_PROP.get(), freezeSet.distsToBeFrozen())
savedDistsInFreezeSet.compare(BaseDist.DISTRIBUTEDDATE_PROP.get(), Equals, null)
if (!savedDistsInFreezeSet.select().Empty) {
  policyPeriod.reportArchiveProblem(
      gw.api.locale.DisplayKey.get("Web.Archive.PolicyPeriod.SavedDistributionsError"))
}
/*end00rule*/
  }
}
