100148980106001110000251407211029                                               
414898010600111000025000000000040008000801                                      
4001000074247114072114898010600111000025                                        
4804009601900000000343200000000000000000000010700                               
68040100000251600125107037010007567000996253                                    
4804010601900000052500200000000000000000000251600                               
68040110000024500071923828003510999438661702                                    
600100007424711407210330001723300                                               
6013000074247114072101700011097636                                              
9000368                                                                         
