package rules.EventMessage.EventFired_dir.PAS_dir

uses gw.plugin.pas.PASMessageTransport

@gw.rules.RuleName("EREPaymentRcvd")
internal class EREPaymentRcvd {
  static function doCondition(messageContext : entity.MessageContext) : boolean {
/*start00rule*/
    return messageContext.EventName == PASMessageTransport.EVENT_ERE_PAYMENT_RECEIVED
/*end00rule*/
}

  static function doAction(messageContext : entity.MessageContext, actions : gw.rules.Action) {
/*start00rule*/
    messageContext.createMessage(messageContext.Root.toString())
/*end00rule*/
  }
}
