package rules.Preupdate.TransactionPreupdate_dir.TDIC_WC100000_dir

uses java.util.Date
uses gw.api.locale.DisplayKey

@gw.rules.RuleName("TDIC_TNPU110000 - Account Funds Transfer History")
internal class TDIC_TNPU110000AccountFundsTransferHistory {
  static function doCondition(transaction : entity.Transaction) : boolean {
/*start00rule*/
    return transaction typeis TransferTransaction
        && transaction.SourceAccount != null
        && transaction.TargetAccount != null
        && transaction.Reversed == false
        && transaction.ReversedTransaction == null
/*end00rule*/
  }

  static function doAction(transaction : entity.Transaction, actions : gw.rules.Action) {
/*start00rule*/
/**
 * US71 - View History - Account
 * 08/21/2014 Alvin Lee
 * 06/12/2019 Sujit Nanda
 * Account Funds Transfer History Event
 */
    var fundTransferTxn = transaction as TransferTransaction
    fundTransferTxn.SourceAccount.addHistoryFromGosu(Date.CurrentDate, HistoryEventType.TC_ACCOUNTFUNDTRANSFER,
        DisplayKey.get("Accelerator.History.AccountHistory.FundTransfer", fundTransferTxn.SourceAccount, fundTransferTxn.FundsTransfer.SourceUnapplied, fundTransferTxn.TargetAccount, fundTransferTxn.FundsTransfer.TargetUnapplied, fundTransferTxn.Amount),
        null, null, false)
    fundTransferTxn.TargetAccount.addHistoryFromGosu(Date.CurrentDate, HistoryEventType.TC_ACCOUNTFUNDTRANSFER,
        DisplayKey.get("Accelerator.History.AccountHistory.FundTransfer", fundTransferTxn.SourceAccount, fundTransferTxn.FundsTransfer.SourceUnapplied, fundTransferTxn.TargetAccount, fundTransferTxn.FundsTransfer.TargetUnapplied, fundTransferTxn.Amount),
        null, null, false)

    actions.exit()
/*end00rule*/
  }
}
