package rules.Preupdate.PolicyPeriodPreupdate_dir

@gw.rules.RuleName("TDIC_WC100000")
internal class TDIC_WC100000 {
  static function doCondition(policyPeriod : entity.PolicyPeriod) : boolean {
/*start00rule*/
return true
/*end00rule*/
}

  static function doAction(policyPeriod : entity.PolicyPeriod, actions : gw.rules.Action) {
/*start00rule*/
 
/*end00rule*/
  }
}
