package rules.Preupdate.SuspensePaymentPreupdate_dir

@gw.rules.RuleName("TDIC_WC100000")
internal class TDIC_WC100000 {
  static function doCondition(suspensePayment : entity.SuspensePayment) : boolean {
/*start00rule*/
return true
/*end00rule*/
}

  static function doAction(suspensePayment : entity.SuspensePayment, actions : gw.rules.Action) {
/*start00rule*/
 
/*end00rule*/
  }
}
