package rules.Preupdate.BillingInstructionPreupdate_dir.TDIC_WC100000_dir.TDIC_BIPU120000Reinstatement_dir

@gw.rules.RuleName("Clear Distribution Context")
internal class ClearDistributionContext {
  static function doCondition(billingInstruction : entity.BillingInstruction) : boolean {
/*start00rule*/
return true
/*end00rule*/
}

  static function doAction(billingInstruction : entity.BillingInstruction, actions : gw.rules.Action) {
/*start00rule*/
// The distribution context is set when processing a delinquency cancel so that the
// amounts can be factored into the decision to exit delinquency.  Need to remove
// these contexts when the policy is reinstated.
var reinstatement = (billingInstruction as Reinstatement);
    tdic.bc.config.invoice.InvoiceUtil.clearDistributionContext(reinstatement.PolicyPeriod);

/*end00rule*/
  }
}
