package rules.Preupdate.SuspensePaymentPreupdate_dir.TDIC_WC100000_dir

uses java.util.Date
uses gw.api.locale.DisplayKey

@gw.rules.RuleName("TDIC_SPPU120000 - Suspense Payment Applied Policy History")
internal class TDIC_SPPU120000SuspensePaymentAppliedPolicyHistory {
  static function doCondition(suspensePayment : entity.SuspensePayment) : boolean {
/*start00rule*/
return suspensePayment.getOriginalValue(SuspensePayment#PolicyPeriodAppliedTo) == null
    && suspensePayment.PolicyPeriodAppliedTo != null
/*end00rule*/
}

  static function doAction(suspensePayment : entity.SuspensePayment, actions : gw.rules.Action) {
/*start00rule*/
  /**
   * US78 - View History - Policy
   * 08/21/2014 Alvin Lee
   *
   * Suspense Payment Applied to Policy History Event
   */
suspensePayment.PolicyPeriodAppliedTo.addHistoryFromGosu(Date.CurrentDate, HistoryEventType.TC_SUSPENSEPAYMENT,
    DisplayKey.get("TDIC.PolicyHistory.SuspensePaymentApplied", suspensePayment.Amount), null, null, false)
/*end00rule*/
  }
}
