package rules.EventMessage.EventFired_dir.TDIC_ALL100000_dir

@gw.rules.RuleName("EFR4100OnBase")
internal class EFR4100OnBase {
  static function doCondition(messageContext : entity.MessageContext) : boolean {
/*start00rule*/
    return messageContext.DestID == 7
/*end00rule*/
}

  static function doAction(messageContext : entity.MessageContext, actions : gw.rules.Action) {
/*start00rule*/
 
/*end00rule*/
  }
}
