package rules.Preupdate.InvoicePreupdate_dir.TDIC_WC100000_dir


@gw.rules.RuleDisabled
@gw.rules.RuleName("TDIC_IPU120000 - Empty Invoices")
internal class TDIC_IPU120000EmptyInvoices {
  static function doCondition(invoice : entity.Invoice) : boolean {
/*start00rule*/
return not invoice.New
    and invoice.InvoiceItems.Count == 0
/*end00rule*/
}

  static function doAction(invoice : entity.Invoice, actions : gw.rules.Action) {
/*start00rule*/
//US170: Search Invoices, 12/17/2014, Vicente. Empty invoices removed
// SN: 04/08/2020 GBC-3026 invoice batch failed items, disabling the preupdate rule
invoice.remove() 
/*end00rule*/
  }
}
