package rules.Assignment.DefaultGroupTroubleTicketAssignmentRules_dir

uses gw.api.system.BCLoggerCategory
uses org.slf4j.LoggerFactory

@gw.rules.RuleName("Assign Round Robin")
internal class AssignRoundRobin {
  static function doCondition(troubleTicket : entity.TroubleTicket) : boolean {
    
/*start00rule*/
return true
/*end00rule*/

  }

  static function doAction(troubleTicket : entity.TroubleTicket, actions : gw.rules.Action) {

/*start00rule*/
var _logger = LoggerFactory.getLogger("Rules")
_logger.debug ("DGTTA110000 : DefaultGroupTroubleTicketAssignmentRule begins " + troubleTicket.AccountNumber)
if (troubleTicket.CurrentAssignment.assignUserByRoundRobin(false, troubleTicket.AssignedGroup)) {
  _logger.debug ("DGTTA110000 : TT assignUserByRoundRobin successful " + troubleTicket.AssignedUser.DisplayName)
  actions.exit()
} else {
  _logger.debug ("DGTTA110000 : TT assignUserByRoundRobin Failed.")
}
/*end00rule*/

  }
}
