package rules.Preupdate.ActivityPreupdate_dir

@gw.rules.RuleName("TDIC_WC100000")
internal class TDIC_WC100000 {
  static function doCondition(activity : entity.Activity) : boolean {
/*start00rule*/
return true
/*end00rule*/
}

  static function doAction(activity : entity.Activity, actions : gw.rules.Action) {
/*start00rule*/
 
/*end00rule*/
  }
}
