package rules.Preupdate.AccountPreupdate_dir

@gw.rules.RuleName("ACPU0200 - UpdateName")
internal class ACPU0200UpdateName {
  static function doCondition(account : entity.Account) : boolean {
/*start00rule*/
return true
/*end00rule*/
}

  static function doAction(account : entity.Account, actions : gw.rules.Action) {
/*start00rule*/
 // update the account name to display credential information.
    account.AccountName = account.PrimaryPayer.DisplayName
    actions.exit()
/*end00rule*/
  }
}
