package rules.EventMessage.EventFired_dir.TDIC_ALL100000_dir.TDIC_EFR120000HPExstream_dir

@gw.rules.RuleDisabled
@gw.rules.RuleName("TDIC_EFR125000 - Renewals")
internal class TDIC_EFR125000Renewals {
  static function doCondition(messageContext : entity.MessageContext) : boolean {
/*start00rule*/
return true
/*end00rule*/
}

  static function doAction(messageContext : entity.MessageContext, actions : gw.rules.Action) {
/*start00rule*/
 
/*end00rule*/
  }
}
