package rules.EventMessage.EventFired_dir

@gw.rules.RuleName("EFR09000 - Admin Audit")
internal class EFR09000AdminAudit {
  static function doCondition(messageContext : entity.MessageContext) : boolean {
    
/*start00rule*/
return messageContext.DestID == 10
/*end00rule*/

  }

  static function doAction(messageContext : entity.MessageContext, actions : gw.rules.Action) {

/*start00rule*/

/*end00rule*/

  }
}
