package rules.EventMessage.EventFired_dir


@gw.rules.RuleName("TDIC_EFR120000 - HP Exstream")
internal class TDIC_EFR120000HPExstream {
  static function doCondition(messageContext : entity.MessageContext) : boolean {
/*start00rule*/
return true
/*end00rule*/
}

  static function doAction(messageContext : entity.MessageContext, actions : gw.rules.Action) {
/*start00rule*/
 
/*end00rule*/
  }
}
