package rules.EventMessage.EventFired_dir.TDIC_ALL100000_dir.TDIC_EFR120000HPExstream_dir.TDIC_EFR124000Audits_dir


@gw.rules.RuleName("TDIC_EFR124300 - Final Audit APW")
internal class TDIC_EFR124300FinalAuditAPW {
  static function doCondition(messageContext     :     entity.MessageContext) : boolean {
/*start00rule*/
return messageContext.EventName == TDIC_DocCreationEventType.TC_FINALAUDITAPW as String
/*end00rule*/
}

  static function doAction(messageContext     :     entity.MessageContext, actions : gw.rules.Action) {
/*start00rule*/
 
/*end00rule*/
  }
}
