package rules.Preupdate.ContactPreupdate_dir

uses gw.transaction.Transaction
uses gw.command.demo.GeneralUtil
uses gw.api.system.BCLoggerCategory
uses org.slf4j.LoggerFactory

@gw.rules.RuleDisabled
@gw.rules.RuleName("NameUpdateOnLawsonContact")
internal class NameUpdateOnLawsonContact {
  static function doCondition(contact  : entity.Contact) : boolean {
/*start00rule*/
//GW-391
var returnVal = false
var hasVendorNumber = (contact.VendorNumber != null and contact.VendorNumber.trim().length() != 0)
if( hasVendorNumber ) {
  if( contact typeis Person ) {
    returnVal = contact.isFieldChanged("FirstName") || contact.isFieldChanged("LastName")
  }
  else if( contact typeis Company ) {
    returnVal = contact.isFieldChanged("Name")
  }
}
return returnVal
/*end00rule*/
}

  static function doAction(contact  : entity.Contact, actions : gw.rules.Action) {
/*start00rule*/

var logger = LoggerFactory.getLogger("Rules")
/*var nameActivityPattern = ActivityPattern.NameActivity
var financeAPGroup = GeneralUtil.findGroupByUserName("Finance AP")
var currentBundle = Transaction.Current

var policyPeriods = contact.findPolicyPeriodContacts()
for(period in policyPeriods*.PolicyPeriod) {
  var description = nameActivityPattern.Description
  description = description.replace("{1}", period.PolicyNumber)
  var vendorNumber = contact.VendorNumber
  description = description.replace("{2}", vendorNumber)
  var theActivity = new Activity(currentBundle)
  theActivity.ActivityPattern = nameActivityPattern
  theActivity.Description = description
  theActivity.PolicyPeriod = period
  theActivity.Account = period.Account
  if( theActivity.assignGroup(financeAPGroup) ) {
    logger.debug("NameUpdateOnLawsonContact : assignGroup successful :" + theActivity.AssignedGroup.DisplayName)
    if( theActivity.assignUserByRoundRobin(false, theActivity.AssignedGroup)) {
      logger.debug("NameUpdateOnLawsonContact : assignUserByRoundRobin successful :" + theActivity.AssignedUser.DisplayName)
    }
    else {
      logger.warn("NameUpdateOnLawsonContact : failed to assignUserByRoundRobin.")
    }
  }
  else {
    logger.warn("NameUpdateOnLawsonContact : failed to assignGroup.")
  }
}*/

/*end00rule*/
  }
}
