package rules.Preupdate.AccountPreupdate_dir.TDIC_WC100000_dir.TDIC_ACPU110000AccountDefaultPaymentInstrumentChanged_dir


@gw.rules.RuleName("TDIC_ACPU112000 - Document Creation")
internal class TDIC_ACPU112000DocumentCreation {
  static function doCondition(account      :      entity.Account) : boolean {
/*start00rule*/
return true
/*end00rule*/
}

  static function doAction(account      :      entity.Account, actions : gw.rules.Action) {
/*start00rule*/

/*end00rule*/
  }
}
