package rules.Preupdate.BaseMoneyReceivedPreupdate_dir.TDIC_WC100000_dir


@gw.rules.RuleName("TDIC_BMPU130000 - Reinstate after payment during deliquency")
internal class TDIC_BMPU130000Reinstateafterpaymentduringdeliquency {
  static function doCondition(baseMoneyReceived   :   entity.BaseMoneyReceived) : boolean {
/*start00rule*/
var blnFoundCancellationPayment : boolean = false

    if (baseMoneyReceived typeis DirectBillMoneyRcvd) {
      if (baseMoneyReceived typeis ZeroDollarDMR) { // a successful test performs a casting
        // A Cancellation Charge of subtype ZeroDollarDMR is triggering this
      } else {
        for (eachActiveDelinq in baseMoneyReceived.Account.ActiveDelinquencyProcesses) {
          //restricting WC and Past due as Charge will be on hold and the payment can be distributed if made after cancellation getting bound
          //GWPS-2370: Removed the check for WC lob and included Not-Taken
          if (eachActiveDelinq.Reason == DelinquencyReason.TC_PASTDUE
              or eachActiveDelinq.Reason == DelinquencyReason.TC_NOTTAKEN) {
            if (eachActiveDelinq.PreviousEvent.EventName == typekey.DelinquencyEventName.TC_CANCELED) {
              if (eachActiveDelinq.Target typeis PolicyPeriod) {
                var tmpPolicyPeriod = eachActiveDelinq.Target as PolicyPeriod
                blnFoundCancellationPayment = tmpPolicyPeriod.Canceled
                break
              }
            }
          }
        }
      }
    }
    return blnFoundCancellationPayment
/*end00rule*/
}

  static function doAction(baseMoneyReceived   :   entity.BaseMoneyReceived, actions : gw.rules.Action) {
/*start00rule*/
var baserecieved = baseMoneyReceived as DirectBillMoneyRcvd
    //GWPS-2370: Modified the code to get the policy period from payment unapplied fund
    //and changed the field to get the unapplied amount
    var period = baserecieved.PolicyPeriod == null ? baserecieved?.UnappliedFund?.PolicyPeriod_TDIC : baserecieved.PolicyPeriod
    for (eachActiveDelinq in period.ActiveDelinquencyProcesses) {
      if (eachActiveDelinq.PreviousEvent.EventName == typekey.DelinquencyEventName.TC_CANCELED) {
        var thresholdAmount = eachActiveDelinq.DelinquencyPlan.getExitDelinquencyThreshold(period.Currency)
        var amountUnDistributed = period?.undistributedAmount_TDIC//eachActiveDelinq.getUnDistributedAmountForPolicy(period)
        var dueAmtWithExitThrsholdAmt = period.DueAmount - thresholdAmount
        if (baserecieved.Amount >= dueAmtWithExitThrsholdAmt) {
          eachActiveDelinq.exitDelinquency()
        } else {
          var paymentInUnapplied = (amountUnDistributed.ofCurrency(period.Currency) + baserecieved.Amount)
          if (paymentInUnapplied >= dueAmtWithExitThrsholdAmt) {
            eachActiveDelinq.exitDelinquency()
          }
        }
      }
    } 
/*end00rule*/
  }
}
