package rules.Preupdate.WriteoffPreupdate_dir.TDIC_WC100000_dir

uses java.util.Date
uses gw.api.locale.DisplayKey

@gw.rules.RuleName("TDIC_WOPU120000 - PolicyPeriod Write-off History")
internal class TDIC_WOPU120000PolicyPeriodWriteoffHistory {
  static function doCondition(writeoff : entity.Writeoff) : boolean {
/*start00rule*/
return writeoff.New && writeoff.ApprovalStatus == ApprovalStatus.TC_APPROVED && writeoff.TAccountOwner typeis PolicyPeriod
/*end00rule*/
}

  static function doAction(writeoff : entity.Writeoff, actions : gw.rules.Action) {
/*start00rule*/
/**
 * US78 - View History - Policy
 * 08/21/2014 Alvin Lee
 *
 * PolicyPeriod Write-off History Event
 */
var ownerPolicyPeriod = writeoff.TAccountOwner as PolicyPeriod
// if write off is reversed
if (writeoff.Reversal) {
  ownerPolicyPeriod.addHistoryFromGosu(Date.CurrentDate, HistoryEventType.TC_POLICYWRITEOFF,
      DisplayKey.get("TDIC.PolicyHistory.WriteoffReversal", writeoff.Amount), null, null, false)
}
else {
  ownerPolicyPeriod.addHistoryFromGosu(Date.CurrentDate, HistoryEventType.TC_POLICYWRITEOFF,
      DisplayKey.get("TDIC.PolicyHistory.Writeoff", writeoff.Amount), null, null, false)
}
/*end00rule*/
  }
}
