package rules.Preupdate.WriteoffPreupdate_dir.TDIC_WC100000_dir

uses java.util.Date
uses gw.api.locale.DisplayKey

@gw.rules.RuleName("TDIC_WOPU110000 - Account Write-off History")
internal class TDIC_WOPU110000AccountWriteoffHistory {
  static function doCondition(writeoff : entity.Writeoff) : boolean {
/*start00rule*/
return writeoff.New && writeoff.ApprovalStatus == ApprovalStatus.TC_APPROVED && writeoff.TAccountOwner typeis Account
/*end00rule*/
}

  static function doAction(writeoff : entity.Writeoff, actions : gw.rules.Action) {
/*start00rule*/
/**
 * US71 - View History - Account
 * 08/21/2014 Alvin Lee
 *
 * Account Write-off History Event
 */
var ownerAccount = writeoff.TAccountOwner as Account
// if write off is reversed
if (writeoff.Reversal) {
  ownerAccount.addHistoryFromGosu(Date.CurrentDate, HistoryEventType.TC_ACCOUNTWRITEOFF,
      DisplayKey.get("TDIC.AccountHistory.WriteoffReversal", writeoff.Amount), null, null, false)
}
else {
  ownerAccount.addHistoryFromGosu(Date.CurrentDate, HistoryEventType.TC_ACCOUNTWRITEOFF,
      DisplayKey.get("TDIC.AccountHistory.Writeoff", writeoff.Amount), null, null, false)
}
/*end00rule*/
  }
}
