package rules.Preupdate.ActivityPreupdate_dir.TDIC_WC100000_dir.TDIC_ACTPU110000NewActivity_dir

uses gw.api.system.BCLoggerCategory
uses org.slf4j.LoggerFactory

@gw.rules.RuleName("TDIC_ACTPU113000 - Set Entities On CreditReversalApprActivity")
internal class TDIC_ACTPU113000SetEntitiesOnCreditReversalApprActivity {
  static function doCondition(activity : entity.Activity) : boolean {
/*start00rule*/
return activity typeis CreditReversalApprActivity
/*end00rule*/
}

  static function doAction(activity : entity.Activity, actions : gw.rules.Action) {
/*start00rule*/
LoggerFactory.getLogger("Rules").debug("TDIC_ACTPU113000 - Set Entities On CreditReversalApprActivity - Entering")
var creditReversalActivity = activity as CreditReversalApprActivity
if (creditReversalActivity.Account == null && creditReversalActivity.CreditReversal.Credit.Account != null) {
  LoggerFactory.getLogger("Rules").debug("TDIC_ACTPU113000 - Set Entities On CreditReversalApprActivity - Setting Account to "
      + creditReversalActivity.CreditReversal.Credit.Account)
  creditReversalActivity.Account = creditReversalActivity.CreditReversal.Credit.Account
}
/*end00rule*/
  }
}
