package rules.Preupdate.ActivityPreupdate_dir.TDIC_WC100000_dir.TDIC_ACTPU110000NewActivity_dir

uses gw.api.system.BCLoggerCategory
uses org.slf4j.LoggerFactory

@gw.rules.RuleName("TDIC_ACTPU114000 - Set Entities On DisbApprActivity")
internal class TDIC_ACTPU114000SetEntitiesOnDisbApprActivity {
  static function doCondition(activity : entity.Activity) : boolean {
/*start00rule*/
return activity typeis DisbApprActivity
/*end00rule*/
}

  static function doAction(activity : entity.Activity, actions : gw.rules.Action) {
/*start00rule*/
LoggerFactory.getLogger("Rules").debug("TDIC_ACTPU114000 - Set Entities On DisbApprActivity - Entering")
var disbActivity = activity as DisbApprActivity
if (disbActivity.Account == null && disbActivity.Disbursement typeis AccountDisbursement
    && disbActivity.Disbursement.Account != null) {
  LoggerFactory.getLogger("Rules").debug("TDIC_ACTPU114000 - Set Entities On DisbApprActivity - Setting Account to "
      + disbActivity.Disbursement.Account)
  disbActivity.Account = disbActivity.Disbursement.Account
}
/*end00rule*/
  }
}
