package rules.EventMessage.EventFired_dir.TDIC_ALL100000_dir.TDIC_EFR120000HPExstream_dir.TDIC_EFR121000InitialBilling_dir
uses tdic.bc.integ.plugins.hpexstream.util.TDIC_BCExstreamHelper
@gw.rules.RuleName("TDIC_EFR121100 - Policy")
internal class TDIC_EFR121100Policy {
  static function doCondition(messageContext : entity.MessageContext) : boolean {
/*start00rule*/
return messageContext.Root typeis PolicyPeriod
/*end00rule*/
}

  static function doAction(messageContext : entity.MessageContext, actions : gw.rules.Action) {
/*start00rule*/
(new TDIC_BCExstreamHelper()).createBatchMessageForPolicy(messageContext)
/*end00rule*/
  }
}
